[
	{
		"name":"ROLE_TENANT_AUDIT",
		"nickName":"订单管理员",
		"description":"审核订单并指定配送员和安装工",
		"builtin":false,
		"privileges":[
			{
				"resourceId":"order",
				"resourceName":"订单",
				"resourceDescription":"订单权限控制",
				"operations":{
					"create":"创建订单",
					"update":"更新订单",
					"read":"查询订单",
					"delete":"删除订单",
					"verify":"审核订单",
					"readOther":"查询他人订单",
					"updateOther":"修改他人订单",
					"deleteOther":"删除他人订单"
				}
			},
			{
				"resourceId":"product",
				"resourceName":"库存",
				"resourceDescription":"库存权限控制",
				"operations":{
					"read":"查询商品信息"
				}
			}
		],
		"columnPrivileges":{
			"order":[
				{
					"dataCode":"id",
					"isAccessible":true,
					"isUpdateable":false,
					"isEditable":true
				},
				{
					"dataCode":"orderNo",
					"isAccessible":true,
					"isUpdateable":false,
					"isEditable":true
				},
				{
					"dataCode":"state",
					"isAccessible":true,
					"isUpdateable":true,
					"isEditable":true
				},
				{
					"dataCode":"customer",
					"isAccessible":true,
					"isUpdateable":true,
					"isEditable":true
				},
				{
					"dataCode":"consignee",
					"isAccessible":true,
					"isUpdateable":true,
					"isEditable":true
				},
				{
					"dataCode":"introductor",
					"isAccessible":true,
					"isUpdateable":false,
					"isEditable":true
				},
				{
					"dataCode":"guider",
					"isAccessible":true,
					"isUpdateable":false,
					"isEditable":true
				},
				{
					"dataCode":"approver",
					"isAccessible":true,
					"isUpdateable":true,
					"isEditable":true
				},
				{
					"dataCode":"deliveryer",
					"isAccessible":true,
					"isUpdateable":false,
					"isEditable":true
				},
				{
					"dataCode":"installer",
					"isAccessible":true,
					"isUpdateable":false,
					"isEditable":true
				},
				{
					"dataCode":"remark",
					"isAccessible":true,
					"isUpdateable":true,
					"isEditable":true
				},
				{
					"dataCode":"total",
					"isAccessible":true,
					"isUpdateable":true,
					"isEditable":true
				},
				{
					"dataCode":"payment",
					"isAccessible":true,
					"isUpdateable":true,
					"isEditable":true
				},
				{
					"dataCode":"items",
					"isAccessible":true,
					"isUpdateable":true,
					"isEditable":true
				},
				{
					"dataCode":"createTime",
					"isAccessible":true,
					"isUpdateable":false,
					"isEditable":false
				},
				{
					"dataCode":"lastModifyTime",
					"isAccessible":true,
					"isUpdateable":false,
					"isEditable":false
				},
				{
					"dataCode":"version",
					"isAccessible":true,
					"isUpdateable":false,
					"isEditable":true
				},
				{
					"dataCode":"tenantId",
					"isAccessible":true,
					"isUpdateable":false,
					"isEditable":false
				}
			],
			"orderOther":[
				{
					"dataCode":"id",
					"isAccessible":true,
					"isUpdateable":false,
					"isEditable":true
				},
				{
					"dataCode":"orderNo",
					"isAccessible":true,
					"isUpdateable":false,
					"isEditable":true
				},
				{
					"dataCode":"state",
					"isAccessible":true,
					"isUpdateable":true,
					"isEditable":true
				},
				{
					"dataCode":"customer",
					"isAccessible":true,
					"isUpdateable":true,
					"isEditable":true
				},
				{
					"dataCode":"consignee",
					"isAccessible":true,
					"isUpdateable":true,
					"isEditable":true
				},
				{
					"dataCode":"introductor",
					"isAccessible":true,
					"isUpdateable":true,
					"isEditable":true
				},
				{
					"dataCode":"guider",
					"isAccessible":true,
					"isUpdateable":true,
					"isEditable":true
				},
				{
					"dataCode":"approver",
					"isAccessible":true,
					"isUpdateable":true,
					"isEditable":true
				},
				{
					"dataCode":"deliveryer",
					"isAccessible":true,
					"isUpdateable":true,
					"isEditable":true
				},
				{
					"dataCode":"installer",
					"isAccessible":true,
					"isUpdateable":true,
					"isEditable":true
				},
				{
					"dataCode":"remark",
					"isAccessible":true,
					"isUpdateable":true,
					"isEditable":true
				},
				{
					"dataCode":"total",
					"isAccessible":true,
					"isUpdateable":false,
					"isEditable":true
				},
				{
					"dataCode":"payment",
					"isAccessible":true,
					"isUpdateable":false,
					"isEditable":true
				},
				{
					"dataCode":"items",
					"isAccessible":true,
					"isUpdateable":true,
					"isEditable":true
				},
				{
					"dataCode":"createTime",
					"isAccessible":true,
					"isUpdateable":false,
					"isEditable":false
				},
				{
					"dataCode":"lastModifyTime",
					"isAccessible":true,
					"isUpdateable":false,
					"isEditable":false
				},
				{
					"dataCode":"version",
					"isAccessible":true,
					"isUpdateable":false,
					"isEditable":true
				},
				{
					"dataCode":"tenantId",
					"isAccessible":true,
					"isUpdateable":false,
					"isEditable":false
				}
			],
			"orderVerify":[
				{
					"dataCode":"id",
					"isAccessible":true,
					"isUpdateable":false,
					"isEditable":true
				},
				{
					"dataCode":"orderNo",
					"isAccessible":true,
					"isUpdateable":false,
					"isEditable":true
				},
				{
					"dataCode":"state",
					"isAccessible":true,
					"isUpdateable":true,
					"isEditable":true
				},
				{
					"dataCode":"customer",
					"isAccessible":true,
					"isUpdateable":true,
					"isEditable":true
				},
				{
					"dataCode":"consignee",
					"isAccessible":true,
					"isUpdateable":true,
					"isEditable":true
				},
				{
					"dataCode":"introductor",
					"isAccessible":true,
					"isUpdateable":true,
					"isEditable":true
				},
				{
					"dataCode":"guider",
					"isAccessible":true,
					"isUpdateable":false,
					"isEditable":true
				},
				{
					"dataCode":"approver",
					"isAccessible":true,
					"isUpdateable":true,
					"isEditable":false
				},
				{
					"dataCode":"deliveryer",
					"isAccessible":true,
					"isUpdateable":true,
					"isEditable":true
				},
				{
					"dataCode":"installer",
					"isAccessible":true,
					"isUpdateable":true,
					"isEditable":true
				},
				{
					"dataCode":"remark",
					"isAccessible":true,
					"isUpdateable":true,
					"isEditable":true
				},
				{
					"dataCode":"total",
					"isAccessible":true,
					"isUpdateable":false,
					"isEditable":true
				},
				{
					"dataCode":"payment",
					"isAccessible":true,
					"isUpdateable":false,
					"isEditable":true
				},
				{
					"dataCode":"items",
					"isAccessible":true,
					"isUpdateable":false,
					"isEditable":true
				},
				{
					"dataCode":"createTime",
					"isAccessible":true,
					"isUpdateable":false,
					"isEditable":false
				},
				{
					"dataCode":"lastModifyTime",
					"isAccessible":true,
					"isUpdateable":false,
					"isEditable":false
				},
				{
					"dataCode":"version",
					"isAccessible":true,
					"isUpdateable":false,
					"isEditable":true
				},
				{
					"dataCode":"tenantId",
					"isAccessible":true,
					"isUpdateable":false,
					"isEditable":false
				}
			],
			"product":[
				{
					"dataCode":"id",
					"isAccessible":true,
					"isUpdateable":false,
					"isEditable":false
				},
				{
					"dataCode":"type",
					"isAccessible":true,
					"isUpdateable":false,
					"isEditable":false
				},
				{
					"dataCode":"picture",
					"isAccessible":true,
					"isUpdateable":false,
					"isEditable":false
				},
				{
					"dataCode":"identifier",
					"isAccessible":true,
					"isUpdateable":false,
					"isEditable":false
				},
				{
					"dataCode":"name",
					"isAccessible":true,
					"isUpdateable":false,
					"isEditable":false
				},
				{
					"dataCode":"introduction",
					"isAccessible":true,
					"isUpdateable":false,
					"isEditable":false
				},
				{
					"dataCode":"price",
					"isAccessible":true,
					"isUpdateable":false,
					"isEditable":false
				},
				{
					"dataCode":"minPrice",
					"isAccessible":false,
					"isUpdateable":false,
					"isEditable":false
				},
				{
					"dataCode":"inventory",
					"isAccessible":true,
					"isUpdateable":false,
					"isEditable":false
				},
				{
					"dataCode":"remark",
					"isAccessible":true,
					"isUpdateable":false,
					"isEditable":false
				},
				{
					"dataCode":"valid",
					"isAccessible":false,
					"isUpdateable":false,
					"isEditable":false
				},
				{
					"dataCode":"creater",
					"isAccessible":false,
					"isUpdateable":false,
					"isEditable":false
				},
				{
					"dataCode":"tenantId",
					"isAccessible":false,
					"isUpdateable":false,
					"isEditable":false
				},
				{
					"dataCode":"lastModifiedTime",
					"isAccessible":false,
					"isUpdateable":false,
					"isEditable":false
				},
				{
					"dataCode":"createTime",
					"isAccessible":false,
					"isUpdateable":false,
					"isEditable":false
				},
				{
					"dataCode":"version",
					"isAccessible":true,
					"isUpdateable":false,
					"isEditable":true
				},
				{
					"dataCode":"category",
					"isAccessible":true,
					"isUpdateable":false,
					"isEditable":false
				},
				{
					"dataCode":"brand",
					"isAccessible":true,
					"isUpdateable":false,
					"isEditable":false
				},
				{
					"dataCode":"material",
					"isAccessible":true,
					"isUpdateable":false,
					"isEditable":false
				},
				{
					"dataCode":"color",
					"isAccessible":true,
					"isUpdateable":false,
					"isEditable":false
				},
				{
					"dataCode":"size",
					"isAccessible":true,
					"isUpdateable":false,
					"isEditable":false
				},
				{
					"dataCode":"items",
					"isAccessible":true,
					"isUpdateable":false,
					"isEditable":false
				}
			],
			"shopcaret":[
				{
					"dataCode":"id",
					"isAccessible":true,
					"isUpdateable":false,
					"isEditable":true
				},
				{
					"dataCode":"product",
					"isAccessible":true,
					"isUpdateable":false,
					"isEditable":false
				},
				{
					"dataCode":"number",
					"isAccessible":true,
					"isUpdateable":true,
					"isEditable":true
				},
				{
					"dataCode":"creater",
					"isAccessible":true,
					"isUpdateable":false,
					"isEditable":false
				},
				{
					"dataCode":"createTime",
					"isAccessible":true,
					"isUpdateable":false,
					"isEditable":false
				},
				{
					"dataCode":"lastModifiedTime",
					"isAccessible":false,
					"isUpdateable":false,
					"isEditable":false
				}
			]
		}
	}
]